Network Graphs
…
---
With the tidyverse function **`as_tibble()`** we can extract the activated data - either nodes or edges - in the form of a table.

```r
graph_routes %>% as_tibble()
```

```
## # A tibble: 59 × 3
##    name                       title                      label         
##    <chr>                      <chr>                      <chr>         
##  1 AIX EN PROVENCE TGV        Aix En Provence Tgv        "Aix\nEn\nPro…
##  2 ANGERS SAINT LAUD          Angers Saint Laud          "Angers\nSain…
##  3 ANGOULEME                  Angouleme                  "Angouleme"   
##  4 ANNECY                     Annecy                     "Annecy"      
##  5 ARRAS                      Arras                      "Arras"       
##  6 AVIGNON TGV                Avignon Tgv                "Avignon\nTgv"
##  7 BARCELONA                  Barcelona                  "Barcelona"   
##  8 BELLEGARDE (AIN)           Bellegarde (Ain)           "Bellegarde\n…
##  9 BESANCON FRANCHE COMTE TGV Besancon Franche Comte Tgv "Besancon\nFr…
## 10 BORDEAUX ST JEAN           Bordeaux St Jean           "Bordeaux\nSt…
## # … with 49 more rows
```
…
